Data Generator for Supervised Time Series • kerasgenerator
…
For preparing the prediction results, flow_series_from_dataframe() has a method for tidy_prediction:

# get prediction on train
pred_train <- model %>% 
  predict_generator(
    generator = generator_mode(data_train_gen, "prediction"),
    steps = generator_meta(data_train_gen, "steps_to_all")
  )

# an example for tidy_prediction
data_train_gen %>% 
  tidy_prediction(pred_train)
#> # A tibble: 96 x 3
#>    sample steps passenger
#>     <int> <int>     <dbl>
#>  1      1     1    -1.05 
#>  2      2     1    -0.903
#>  3      3     1    -0.684
#>  4      4     1    -0.790
#>  5      5     1    -0.776
#>  6      6     1    -0.457
#>  7      7     1    -0.297
#>  8      8     1    -0.340
#>  9      9     1    -0.485
#> 10     10     1    -0.786
#> # … with 86 more rows
…
